module github.com/koangel/go-mssqldb/examples/azure-ad-accesstoken

go 1.13

require (
	github.com/Azure/go-autorest/autorest/adal v0.8.1
	github.com/koangel/go-mssqldb v0.0.0-20191128021309-1d7a30a10f73
)
